lobster-project
…
#create table and graph of lobster abundance by site and year

abundance_table <- size_abun_case %>% 
  count(YEAR, SITE) %>% 
  spread(SITE, n)

#summarized abundances 
abundance_summary <- size_abundance %>% 
  group_by(SITE, YEAR) %>% 
  summarize(abundance = sum(COUNT),
            sd = sd(COUNT))

abundance_summary

## # A tibble: 30 x 4
## # Groups:   SITE [?]
##    SITE   YEAR abundance    sd
##    <chr> <int>     <int> <dbl>
##  1 AQUE   2012        38 0.573
##  2 AQUE   2013        32 0.726
##  3 AQUE   2014       100 1.70 
##  4 AQUE   2015        83 1.06 
##  5 AQUE   2016        48 1.10 
##  6 AQUE   2017        67 1.30 
##  7 CARP   2012        78 0.662
##  8 CARP   2013        93 0.893
##  9 CARP   2014        78 0.618
## 10 CARP   2015        90 0.779
## # ... with 20 more rows
…
